<?xml version="1.0" encoding="UTF-8"?>
<svg width="89px" height="89px" viewBox="0 0 89 89" version="1.1" xmlns="http://www.w3.org/2000/svg" xmlns:xlink="http://www.w3.org/1999/xlink">
    <title>value-icon1</title>
    <defs>
        <polygon id="path-1" points="0 0 35.3571429 0 35.3571429 45.2380952 0 45.2380952"></polygon>
        <polygon id="path-3" points="0 0 10.4464286 0 10.4464286 45.2380952 0 45.2380952"></polygon>
        <polygon id="path-5" points="0 0 13.6607143 0 13.6607143 11.9047619 0 11.9047619"></polygon>
    </defs>
    <g id="Welcome" stroke="none" stroke-width="1" fill="none" fill-rule="evenodd">
        <g id="Home-Mobile" transform="translate(-127.000000, -4370.000000)">
            <g id="Value-Prop" transform="translate(1.000000, 4108.000000)">
                <g id="1" transform="translate(58.000000, 262.000000)">
                    <g id="value-icon1" transform="translate(68.000000, 0.000000)">
                        <circle id="Oval" fill="#F4B335" cx="44.5" cy="44.5" r="44.5"></circle>
                        <g id="Group-26" transform="translate(19.000000, 19.000000)">
                            <g id="Group-3" transform="translate(7.232143, 0.000000)">
                                <mask id="mask-2" fill="white">
                                    <use xlink:href="#path-1"></use>
                                </mask>
                                <g id="Clip-2"></g>
                                <path d="M34.5118817,45.2380952 L29.0017695,45.2380952 C28.5349307,45.2380952 28.1565084,44.8642382 28.1565084,44.4030315 C28.1565084,43.9418247 28.5349307,43.5691323 29.0017695,43.5691323 L33.6666206,43.5691323 L33.6666206,1.66919583 L12.2509812,1.66919583 L1.68934335,9.65296458 L1.68934335,16.6758859 C1.68934335,17.1370927 1.31209989,17.5109497 0.845261117,17.5109497 C0.378422341,17.5109497 0,17.1370927 0,16.6758859 L0,9.24067368 C0,8.97978904 0.122604123,8.73637436 0.331266909,8.57681545 L11.4516966,0.171438477 C11.5978785,0.0596307747 11.7794269,-0.000931730854 11.964512,-0.000931730854 L34.5118817,-0.000931730854 C34.9787205,-0.000931730854 35.3571429,0.372925274 35.3571429,0.834132047 L35.3571429,44.4030315 C35.3571429,44.8642382 34.9787205,45.2380952 34.5118817,45.2380952" id="Fill-1" fill="#FFFFFF" mask="url(#mask-2)"></path>
                            </g>
                            <path d="M24.0836534,45.2380952 L8.05805028,45.2380952 C7.60126349,45.2380952 7.23214286,44.9056164 7.23214286,44.4954556 L7.23214286,42.8050959 C7.23214286,42.3949351 7.60126349,42.0634921 8.05805028,42.0634921 C8.51483706,42.0634921 8.8851112,42.3949351 8.8851112,42.8050959 L8.8851112,43.7538517 L24.0836534,43.7538517 C24.5404401,43.7538517 24.9107143,44.0852948 24.9107143,44.4954556 C24.9107143,44.9056164 24.5404401,45.2380952 24.0836534,45.2380952" id="Fill-4" fill="#FFFFFF"></path>
                            <path d="M10.5836776,8.60827935 L18.3935884,8.60827935 L18.3935884,2.58380408 L10.5836776,8.60827935 Z M19.2408454,10.3174603 L8.07977292,10.3174603 C7.71649374,10.3174603 7.39344743,10.0836854 7.27748209,9.73779392 C7.16033342,9.39070972 7.27511545,9.00665091 7.5650288,8.78361054 L18.7261013,0.17449106 C18.9828817,-0.0223092611 19.3272278,-0.0545129499 19.6171411,0.0874218269 C19.9070545,0.231742062 20.0892857,0.528731637 20.0892857,0.854346713 L20.0892857,9.4634662 C20.0892857,9.93578697 19.7094401,10.3174603 19.2408454,10.3174603 L19.2408454,10.3174603 Z" id="Fill-6" fill="#FFFFFF"></path>
                            <path d="M28.9098694,14.2857143 L20.1079878,14.2857143 C19.6538451,14.2857143 19.2857143,13.9301499 19.2857143,13.4915097 C19.2857143,13.0539771 19.6538451,12.6984127 20.1079878,12.6984127 L28.9098694,12.6984127 C29.364012,12.6984127 29.7321429,13.0539771 29.7321429,13.4915097 C29.7321429,13.9301499 29.364012,14.2857143 28.9098694,14.2857143" id="Fill-8" fill="#FFFFFF"></path>
                            <path d="M35.330264,19.047619 L13.6875932,19.047619 C13.2289344,19.047619 12.8571429,18.6920546 12.8571429,18.2534144 C12.8571429,17.8147742 13.2289344,17.4603175 13.6875932,17.4603175 L35.330264,17.4603175 C35.7889227,17.4603175 36.1607143,17.8147742 36.1607143,18.2534144 C36.1607143,18.6920546 35.7889227,19.047619 35.330264,19.047619" id="Fill-10" fill="#FFFFFF"></path>
                            <g id="Group-14" transform="translate(34.553571, 3.174603)">
                                <mask id="mask-4" fill="white">
                                    <use xlink:href="#path-3"></use>
                                </mask>
                                <g id="Clip-13"></g>
                                <path d="M9.58260691,45.2380952 L0.863580434,45.2380952 C0.387163854,45.2380952 0,44.8642459 0,44.4030487 C0,43.9418514 0.387163854,43.5691667 0.863580434,43.5691667 L8.71782036,43.5691667 L8.71782036,1.67009316 L7.36696829,1.67009316 L7.36696829,41.5706452 C7.36696829,42.0318425 6.97980443,42.4056918 6.50218173,42.4056918 L0.863580434,42.4056918 C0.387163854,42.4056918 0,42.0318425 0,41.5706452 C0,41.1094479 0.387163854,40.7367633 0.863580434,40.7367633 L5.63739518,40.7367633 L5.63739518,0.835046579 C5.63739518,0.373849305 6.02455904,0 6.50218173,0 L9.58260691,0 C10.0602296,0 10.4473935,0.373849305 10.4473935,0.835046579 L10.4473935,44.4030487 C10.4473935,44.8642459 10.0602296,45.2380952 9.58260691,45.2380952" id="Fill-12" fill="#FFFFFF" mask="url(#mask-4)"></path>
                            </g>
                            <path d="M24.0536008,48.4126984 L10.4987752,48.4126984 C10.0253904,48.4126984 9.64285714,48.0172077 9.64285714,47.5293127 L9.64285714,44.5329473 C9.64285714,44.0450523 10.0253904,43.6507937 10.4987752,43.6507937 L24.0536008,43.6507937 C24.5269856,43.6507937 24.9107143,44.0450523 24.9107143,44.5329473 C24.9107143,45.0208423 24.5269856,45.416333 24.0536008,45.416333 L11.3558887,45.416333 L11.3558887,46.6471591 L24.0536008,46.6471591 C24.5269856,46.6471591 24.9107143,47.0414177 24.9107143,47.5293127 C24.9107143,48.0172077 24.5269856,48.4126984 24.0536008,48.4126984" id="Fill-15" fill="#FFFFFF"></path>
                            <path d="M29.7321429,26.2542657 C25.7797211,26.2542657 22.5657535,29.4297069 22.5657535,33.3333333 C22.5657535,37.2369598 25.7797211,40.4124009 29.7321429,40.4124009 C33.6845647,40.4124009 36.8996988,37.2369598 36.8996988,33.3333333 C36.8996988,29.4297069 33.6845647,26.2542657 29.7321429,26.2542657 M29.7321429,42.0634921 C24.8581115,42.0634921 20.8928571,38.1471915 20.8928571,33.3333333 C20.8928571,28.5194752 24.8581115,24.6031746 29.7321429,24.6031746 C34.6061742,24.6031746 38.5714286,28.5194752 38.5714286,33.3333333 C38.5714286,38.1471915 34.6061742,42.0634921 29.7321429,42.0634921" id="Fill-17" fill="#FFFFFF"></path>
                            <path d="M29.7315662,30.2039189 C27.985449,30.2039189 26.563413,31.6074277 26.563413,33.3333333 C26.563413,35.059239 27.985449,36.4627478 29.7315662,36.4627478 C31.4788367,36.4627478 32.8997194,35.059239 32.8997194,33.3333333 C32.8997194,31.6074277 31.4788367,30.2039189 29.7315662,30.2039189 M29.7315662,38.0952381 C27.0731778,38.0952381 24.9107143,35.9592162 24.9107143,33.3333333 C24.9107143,30.7074504 27.0731778,28.5714286 29.7315662,28.5714286 C32.3899546,28.5714286 34.5535714,30.7074504 34.5535714,33.3333333 C34.5535714,35.9592162 32.3899546,38.0952381 29.7315662,38.0952381" id="Fill-19" fill="#FFFFFF"></path>
                            <g id="Group-23" transform="translate(23.303571, 38.095238)">
                                <mask id="mask-6" fill="white">
                                    <use xlink:href="#path-5"></use>
                                </mask>
                                <g id="Clip-22"></g>
                                <path d="M6.83035714,7.55156943 C6.95950255,7.55156943 7.08864796,7.57959307 7.20822704,7.63339847 L11.947146,9.81251683 L11.947146,2.55103084 C10.4536033,3.51952789 8.68981186,4.03852573 6.83035714,4.03852573 C4.97090242,4.03852573 3.20830676,3.51952789 1.71356824,2.55103084 L1.71356824,9.81251683 L6.45248724,7.63339847 C6.57206633,7.57959307 6.70121173,7.55156943 6.83035714,7.55156943 M12.8045281,11.9042014 C12.6753827,11.9042014 12.5462372,11.8772987 12.4266582,11.8223724 L6.83035714,9.24980211 L1.23525191,11.8223724 C0.96739477,11.9456764 0.654097577,11.9299832 0.404177296,11.7831393 C0.153061224,11.6362954 0,11.3784779 0,11.1016043 L0,0.804597504 C0,0.47503948 0.215242347,0.179109826 0.54169324,0.0569267487 C0.866948342,-0.0652563282 1.24003508,0.013209868 1.48158482,0.254213185 C2.88903061,1.6587581 4.78794643,2.4322106 6.83035714,2.4322106 C8.87276786,2.4322106 10.7728795,1.6587581 12.1791295,0.254213185 C12.4206792,0.013209868 12.7925702,-0.0652563282 13.1202168,0.0569267487 C13.4466677,0.179109826 13.6607143,0.47503948 13.6607143,0.804597504 L13.6607143,11.1016043 C13.6607143,11.3784779 13.5088489,11.6362954 13.2577328,11.7831393 C13.1202168,11.8638474 12.9623724,11.9042014 12.8045281,11.9042014" id="Fill-21" fill="#FFFFFF" mask="url(#mask-6)"></path>
                            </g>
                            <path d="M9.64258113,19.8926439 C9.14061716,19.8926439 8.73262818,20.3008834 8.73262818,20.8017487 C8.73262818,21.1608165 8.94579097,21.4867219 9.27584946,21.63195 C9.43400249,21.7017052 9.55892047,21.8149145 9.64372717,21.9498508 C9.72738783,21.8149145 9.8523058,21.7017052 10.0093128,21.63195 C10.3393713,21.4867219 10.5536801,21.1608165 10.5536801,20.8017487 C10.5536801,20.3008834 10.1445451,19.8926439 9.64258113,19.8926439 M2.5554917,23.9761824 C2.47641518,23.9761824 2.39733867,23.9864742 2.31940819,24.0070577 C2.08447071,24.0699517 1.88735244,24.2208974 1.76472654,24.4301631 C1.64439271,24.6405722 1.61230369,24.8864307 1.6753357,25.1197104 C1.73722167,25.3541337 1.88849848,25.5508205 2.09936919,25.6708909 C2.40994507,25.8515684 2.8007435,25.8298413 3.09298279,25.6171451 C3.2316532,25.5153711 3.39209831,25.4650559 3.55254341,25.4593383 C3.47575897,25.3186843 3.44023184,25.1540163 3.45856842,24.9836306 C3.49753366,24.6245628 3.32219008,24.2780738 3.01046817,24.0985399 C2.86950568,24.0173494 2.71364473,23.9761824 2.5554917,23.9761824 M15.7326188,25.4593383 C15.893064,25.4650559 16.0535091,25.5153711 16.1933255,25.6182887 C16.4855648,25.8298413 16.8740712,25.8515684 17.1857931,25.6720345 C17.3978098,25.5508205 17.5479406,25.3541337 17.6109726,25.1197104 C17.6740046,24.8864307 17.6407695,24.6405722 17.5204357,24.4301631 C17.3978098,24.2197539 17.2018376,24.0699517 16.9669001,24.0070577 C16.7331087,23.9464507 16.4878569,23.977326 16.2758401,24.0973964 C15.9641182,24.2780738 15.7876286,24.6257063 15.8265938,24.9836306 C15.8449304,25.1551598 15.8094033,25.3186843 15.7326188,25.4593383 M15.7337649,32.4783132 C15.8094033,32.6178236 15.8449304,32.7813481 15.8265938,32.9528773 C15.7876286,33.3119451 15.9641182,33.6584341 16.2758401,33.837968 C16.4878569,33.961469 16.7342547,33.9912008 16.9669001,33.9294503 C17.2018376,33.8665562 17.3978098,33.716754 17.5192897,33.5063449 C17.6407695,33.2959357 17.6740046,33.0512207 17.6109726,32.8167975 C17.5479406,32.5823743 17.3978098,32.386831 17.1869391,32.265617 C16.8740712,32.0849396 16.4844188,32.1078101 16.1933255,32.3193628 C16.0546551,32.4211368 15.89421,32.4725956 15.7337649,32.4783132 M2.55319962,32.144403 C2.39619263,32.144403 2.23918563,32.1844265 2.09822315,32.265617 C1.88849848,32.386831 1.73722167,32.5823743 1.6753357,32.8167975 C1.61230369,33.0512207 1.64439271,33.2959357 1.76587258,33.5063449 C1.88735244,33.7156105 2.08447071,33.8665562 2.31940819,33.9294503 C2.55205359,33.9912008 2.79845142,33.9603255 3.01046817,33.8391115 C3.32219008,33.6584341 3.49753366,33.3119451 3.45856842,32.9540209 C3.44023184,32.7824917 3.47575897,32.6178236 3.55139737,32.4771697 C3.39209831,32.4725956 3.2316532,32.4211368 3.09298279,32.3193628 C2.93253769,32.202723 2.74344167,32.144403 2.55319962,32.144403 M7.59690606,31.6847048 C7.9189423,31.6847048 8.21576574,31.8745304 8.34755994,32.1741348 L9.64258113,35.1038535 L10.9376023,32.1741348 C11.0820029,31.8470857 11.4235218,31.6435378 11.777647,31.6904224 L14.9682125,32.0357679 L13.0726682,29.4525381 C12.8606515,29.164369 12.8606515,28.7732824 13.0726682,28.4851134 L14.9693586,25.9007401 L11.777647,26.2460855 C11.4235218,26.2918267 11.0820029,26.0894222 10.9376023,25.7623732 L9.64258113,22.8326544 L8.34755994,25.7623732 C8.20315934,26.0894222 7.85820237,26.2929702 7.50751522,26.2460855 L4.31694973,25.9007401 L6.21364006,28.4851134 C6.42451077,28.7732824 6.42451077,29.164369 6.21364006,29.4525381 L4.31809576,32.0357679 L7.50751522,31.6904224 C7.53731216,31.6869918 7.56710911,31.6847048 7.59690606,31.6847048 M9.64372717,35.9866571 C9.55892047,36.1215935 9.43400249,36.2348027 9.27584946,36.3045579 C8.94579097,36.4509295 8.73262818,36.776835 8.73262818,37.1359028 C8.73262818,37.6367681 9.14061716,38.043864 9.64258113,38.043864 C10.1445451,38.043864 10.5536801,37.6367681 10.5536801,37.1359028 C10.5536801,36.776835 10.3393713,36.449786 10.0093128,36.3045579 C9.8523058,36.2348027 9.72738783,36.1215935 9.64372717,35.9866571 M9.64258113,39.6825397 C8.23524836,39.6825397 7.08921191,38.5401552 7.08921191,37.1359028 C7.08921191,36.410906 7.39864175,35.7339375 7.91665023,35.2593733 L7.08806587,33.3839874 L5.04582891,33.6058318 C4.89340606,34.2896616 4.46020428,34.8957314 3.83103027,35.2582298 C3.2408215,35.5990011 2.55319962,35.6893399 1.89308263,35.512093 C1.2352577,35.3359897 0.685160202,34.9151714 0.343641339,34.3251109 C0.00212247563,33.736194 -0.0884144043,33.0500772 0.0880752097,32.3925486 C0.264564824,31.73502 0.687452275,31.1861265 1.27766105,30.8453552 C1.90683506,30.4840003 2.64946669,30.4119581 3.31875197,30.6223672 L4.53240458,28.9688257 L3.31875197,27.3152842 C2.64946669,27.5234063 1.90683506,27.4547946 1.27766105,27.0911527 C0.0582782619,26.3890265 -0.360025044,24.8281108 0.342495303,23.611397 C0.685160202,23.0213365 1.2352577,22.6005182 1.89308263,22.4244149 C2.55205359,22.2471681 3.2408215,22.3375068 3.83103027,22.6794217 C4.46020428,23.0407765 4.89340606,23.6468464 5.04582891,24.3306761 L7.08806587,24.5525205 L7.91665023,22.6771346 C7.39864175,22.2025705 7.08921191,21.5256019 7.08921191,20.8017487 C7.08921191,19.3963527 8.23524836,18.2539683 9.64258113,18.2539683 C11.0499139,18.2539683 12.1959503,19.3963527 12.1959503,20.8017487 C12.1959503,21.5256019 11.8865205,22.2025705 11.3696581,22.6771346 L12.1970964,24.5525205 L14.2404794,24.3306761 C14.3929022,23.6468464 14.826104,23.0407765 15.454132,22.6782781 C16.0454868,22.3386503 16.7331087,22.2483116 17.3920796,22.4244149 C18.0510506,22.6005182 18.6011481,23.0224801 18.942667,23.611397 C19.2830398,24.2003139 19.3747227,24.8875743 19.197087,25.5451029 C19.0205974,26.2014879 18.59771,26.7503814 18.0075012,27.0911527 C17.3806193,27.4536511 16.6391337,27.5256934 15.9664103,27.3152842 L14.7527577,28.9688257 L15.9664103,30.6223672 C16.6356956,30.4119581 17.3771812,30.4840003 18.0075012,30.8453552 C18.59771,31.1861265 19.0205974,31.73502 19.197087,32.3925486 C19.3747227,33.0500772 19.2830398,33.736194 18.9415209,34.3251109 C18.6011481,34.9140279 18.0510506,35.3359897 17.3920796,35.512093 C16.7331087,35.6881963 16.0454868,35.5990011 15.454132,35.2582298 C14.826104,34.8957314 14.3929022,34.2908051 14.2404794,33.6058318 L12.1970964,33.3839874 L11.3696581,35.2593733 C11.8865205,35.7339375 12.1959503,36.410906 12.1959503,37.1359028 C12.1959503,38.5401552 11.0499139,39.6825397 9.64258113,39.6825397" id="Fill-24" fill="#FFFFFF"></path>
                        </g>
                    </g>
                </g>
            </g>
        </g>
    </g>
</svg>