<?xml version="1.0" encoding="UTF-8"?>
<svg width="16px" height="14px" viewBox="0 0 16 14" version="1.1" xmlns="http://www.w3.org/2000/svg" xmlns:xlink="http://www.w3.org/1999/xlink">
    <title>email-icon</title>
    <g id="Welcome" stroke="none" stroke-width="1" fill="none" fill-rule="evenodd" font-family="FontAwesome" font-size="16" font-weight="normal">
        <g id="Board-Certified-Dropdown" transform="translate(-1090.000000, -15.000000)" fill="#4E4E4E">
            <g id="email" transform="translate(1090.000000, 11.000000)">
                <text id="email-icon">
                    <tspan x="0" y="16"></tspan>
                </text>
            </g>
        </g>
    </g>
</svg>